{
	"info": {
		"_postman_id": "e5b83948-5b5d-46bd-b7a5-3ecd605f17fa",
		"name": "BikeSharing",
		"schema": "https://schema.getpostman.com/json/collection/v2.1.0/collection.json"
	},
	"item": [
		{
			"name": "Account",
			"item": [
				{
					"name": "/register",
					"request": {
						"auth": {
							"type": "bearer",
							"bearer": [
								{
									"key": "token",
									"value": "eyJhbGciOiJIUzI1NiIsInR5cCI6IkpXVCJ9.eyJpZCI6IjViZGQ2OTgwNTQ5NjhhMTJmNDJkN2Q5NyIsImlhdCI6MTU0MTIzNzEyMCwiZXhwIjoxNTQxMzIzNTIwfQ.0KXfzALzjesNq-ocj3jyghy_M4G6AEyNjUpJhWjGznE",
									"type": "string"
								}
							]
						},
						"method": "POST",
						"header": [
							{
								"key": "Content-Type",
								"value": "application/json",
								"type": "text"
							}
						],
						"body": {
							"mode": "raw",
							"raw": "{\n\t\"username\": \"bob\",\n\t\"password\": \"bob\",\n\t\"email\": \"bob@bikesharing.it\",\n\t\"name\": \"bob\",\n\t\"surname\": \"whatever\"\n}"
						},
						"url": {
							"raw": "http://localhost:8080/api/register",
							"protocol": "http",
							"host": [
								"localhost"
							],
							"port": "8080",
							"path": [
								"api",
								"register"
							]
						},
						"description": "Register a new user"
					},
					"response": []
				},
				{
					"name": "/login",
					"request": {
						"method": "POST",
						"header": [
							{
								"key": "Content-Type",
								"value": "application/json",
								"type": "text"
							}
						],
						"body": {
							"mode": "raw",
							"raw": "{\n\t\"username\": \"admin\",\n\t\"password\": \"admin\"\n}"
						},
						"url": {
							"raw": "http://localhost:8080/api/login",
							"protocol": "http",
							"host": [
								"localhost"
							],
							"port": "8080",
							"path": [
								"api",
								"login"
							]
						},
						"description": "Log in"
					},
					"response": []
				}
			]
		},
		{
			"name": "Users",
			"item": [
				{
					"name": "/users",
					"request": {
						"auth": {
							"type": "bearer",
							"bearer": [
								{
									"key": "token",
									"value": "eyJhbGciOiJIUzI1NiIsInR5cCI6IkpXVCJ9.eyJpZCI6IjViZWY0N2Y3Yzg3ZDE4MzA0ODNkNGRkNyIsImlhdCI6MTU0MjQwODMwNSwiZXhwIjoxNTQyNDk0NzA1fQ.J9133xr90UKuSNNxMa_9pYI82WLLPe4wzueBhrfGoHM",
									"type": "string"
								}
							]
						},
						"method": "GET",
						"header": [],
						"body": {
							"mode": "raw",
							"raw": ""
						},
						"url": {
							"raw": "http://localhost:8080/api/users/",
							"protocol": "http",
							"host": [
								"localhost"
							],
							"port": "8080",
							"path": [
								"api",
								"users",
								""
							]
						}
					},
					"response": []
				},
				{
					"name": "/users/:id",
					"request": {
						"auth": {
							"type": "bearer",
							"bearer": [
								{
									"key": "token",
									"value": "eyJhbGciOiJIUzI1NiIsInR5cCI6IkpXVCJ9.eyJpZCI6IjViZTlkZTllYTA1YzViNTcyMDI0ZmUzOCIsImlhdCI6MTU0MjA1ODIzOSwiZXhwIjoxNTQyMTQ0NjM5fQ.sHSiNEv_Y3hkBH7fVI1Rqk6gdbmEq-c1RpgaN5tD4II",
									"type": "string"
								}
							]
						},
						"method": "GET",
						"header": [],
						"body": {
							"mode": "raw",
							"raw": ""
						},
						"url": {
							"raw": "http://localhost:8080/api/users/5be9de9ea05c5b572024fe38",
							"protocol": "http",
							"host": [
								"localhost"
							],
							"port": "8080",
							"path": [
								"api",
								"users",
								"5be9de9ea05c5b572024fe38"
							]
						}
					},
					"response": []
				},
				{
					"name": "/users/:id",
					"request": {
						"auth": {
							"type": "bearer",
							"bearer": [
								{
									"key": "token",
									"value": "eyJhbGciOiJIUzI1NiIsInR5cCI6IkpXVCJ9.eyJpZCI6IjViZTlkZTllYTA1YzViNTcyMDI0ZmUzOCIsImlhdCI6MTU0MjA1ODIzOSwiZXhwIjoxNTQyMTQ0NjM5fQ.sHSiNEv_Y3hkBH7fVI1Rqk6gdbmEq-c1RpgaN5tD4II",
									"type": "string"
								}
							]
						},
						"method": "PUT",
						"header": [
							{
								"key": "Content-Type",
								"name": "Content-Type",
								"value": "application/json",
								"type": "text"
							}
						],
						"body": {
							"mode": "raw",
							"raw": "{\r\n    \"password\": \"admin\",\r\n    \"email\": \"admin@bikesharing.it\",\r\n    \"country\": \"Italy\",\r\n    \"city\": \"Cesena\",\r\n    \"creditCardInfo\": {\r\n        \"name\": \"Visa\",\r\n        \"cardNumber\": 1234567891019045,\r\n        \"expirationDate\": \"2018-11-12T21:10:45.923Z\",\r\n        \"cvCode\": 127\r\n    }\r\n}"
						},
						"url": {
							"raw": "http://localhost:8080/api/users/5be9de9ea05c5b572024fe38",
							"protocol": "http",
							"host": [
								"localhost"
							],
							"port": "8080",
							"path": [
								"api",
								"users",
								"5be9de9ea05c5b572024fe38"
							]
						}
					},
					"response": []
				},
				{
					"name": "/users/:id/bike",
					"request": {
						"auth": {
							"type": "bearer",
							"bearer": [
								{
									"key": "token",
									"value": "eyJhbGciOiJIUzI1NiIsInR5cCI6IkpXVCJ9.eyJpZCI6IjViZTlkZTllYTA1YzViNTcyMDI0ZmUzOCIsImlhdCI6MTU0MjA1ODIzOSwiZXhwIjoxNTQyMTQ0NjM5fQ.sHSiNEv_Y3hkBH7fVI1Rqk6gdbmEq-c1RpgaN5tD4II",
									"type": "string"
								}
							]
						},
						"method": "GET",
						"header": [],
						"body": {
							"mode": "raw",
							"raw": ""
						},
						"url": {
							"raw": "http://localhost:8080/api/users/5bdd74e3aaf03f496096d497/bike",
							"protocol": "http",
							"host": [
								"localhost"
							],
							"port": "8080",
							"path": [
								"api",
								"users",
								"5bdd74e3aaf03f496096d497",
								"bike"
							]
						}
					},
					"response": []
				},
				{
					"name": "/users/:id/badges",
					"request": {
						"auth": {
							"type": "bearer",
							"bearer": [
								{
									"key": "token",
									"value": "eyJhbGciOiJIUzI1NiIsInR5cCI6IkpXVCJ9.eyJpZCI6IjViZWY0N2Y3Yzg3ZDE4MzA0ODNkNGRkNyIsImlhdCI6MTU0MjQwODMwNSwiZXhwIjoxNTQyNDk0NzA1fQ.J9133xr90UKuSNNxMa_9pYI82WLLPe4wzueBhrfGoHM",
									"type": "string"
								}
							]
						},
						"method": "GET",
						"header": [],
						"body": {
							"mode": "raw",
							"raw": ""
						},
						"url": {
							"raw": "http://localhost:8080/api/users/5be9de9ea05c5b572024fe38/badges",
							"protocol": "http",
							"host": [
								"localhost"
							],
							"port": "8080",
							"path": [
								"api",
								"users",
								"5be9de9ea05c5b572024fe38",
								"badges"
							]
						}
					},
					"response": []
				}
			]
		},
		{
			"name": "Bikes",
			"item": [
				{
					"name": "/bikes",
					"request": {
						"auth": {
							"type": "bearer",
							"bearer": [
								{
									"key": "token",
									"value": "eyJhbGciOiJIUzI1NiIsInR5cCI6IkpXVCJ9.eyJpZCI6IjViZWRhNDljMjRiY2JhMTUxNDY0MTM3ZCIsImlhdCI6MTU0MjQxMjk4NiwiZXhwIjoxNTQyNDk5Mzg2fQ.PmzWymzTxPvf3jm2QaG3qM8CVDNcGutY03VxE92Ejh0",
									"type": "string"
								}
							]
						},
						"method": "GET",
						"header": [],
						"body": {
							"mode": "raw",
							"raw": ""
						},
						"url": {
							"raw": "http://localhost:8080/api/bikes",
							"protocol": "http",
							"host": [
								"localhost"
							],
							"port": "8080",
							"path": [
								"api",
								"bikes"
							]
						},
						"description": "Get all bikes"
					},
					"response": []
				},
				{
					"name": "/bikes",
					"request": {
						"auth": {
							"type": "bearer",
							"bearer": [
								{
									"key": "token",
									"value": "eyJhbGciOiJIUzI1NiIsInR5cCI6IkpXVCJ9.eyJpZCI6IjViZWRhNDljMjRiY2JhMTUxNDY0MTM3ZCIsImlhdCI6MTU0MjQxMjcwNSwiZXhwIjoxNTQyNDk5MTA1fQ.fCVtb7YbLJG3bqg31rFs_ddazzt5fq-alZ6Sxo-gYK0",
									"type": "string"
								}
							]
						},
						"method": "POST",
						"header": [
							{
								"key": "Content-Type",
								"value": "application/json",
								"type": "text"
							}
						],
						"body": {
							"mode": "raw",
							"raw": "{\r\n  \"typeId\": \"5be9eb76e7179a27a535e811\",\r\n  \"towerId\": \"5bef57d4a7abee4324f8a250\",\r\n  \"userId\": \"5bef47f7c87d1830483d4dd7\"\r\n}"
						},
						"url": {
							"raw": "http://localhost:8080/api/bikes",
							"protocol": "http",
							"host": [
								"localhost"
							],
							"port": "8080",
							"path": [
								"api",
								"bikes"
							]
						},
						"description": "Creates a new bike"
					},
					"response": []
				},
				{
					"name": "/bikes/types",
					"request": {
						"auth": {
							"type": "bearer",
							"bearer": [
								{
									"key": "token",
									"value": "eyJhbGciOiJIUzI1NiIsInR5cCI6IkpXVCJ9.eyJpZCI6IjViZWY0N2Y3Yzg3ZDE4MzA0ODNkNGRkNyIsImlhdCI6MTU0MjQwODMwNSwiZXhwIjoxNTQyNDk0NzA1fQ.J9133xr90UKuSNNxMa_9pYI82WLLPe4wzueBhrfGoHM",
									"type": "string"
								}
							]
						},
						"method": "GET",
						"header": [],
						"body": {
							"mode": "raw",
							"raw": ""
						},
						"url": {
							"raw": "http://localhost:8080/api/bikes/types",
							"protocol": "http",
							"host": [
								"localhost"
							],
							"port": "8080",
							"path": [
								"api",
								"bikes",
								"types"
							]
						}
					},
					"response": []
				},
				{
					"name": "/bikes/:id",
					"request": {
						"auth": {
							"type": "bearer",
							"bearer": [
								{
									"key": "token",
									"value": "eyJhbGciOiJIUzI1NiIsInR5cCI6IkpXVCJ9.eyJpZCI6IjViZWRhNDljMjRiY2JhMTUxNDY0MTM3ZCIsImlhdCI6MTU0MjQxMjk4NiwiZXhwIjoxNTQyNDk5Mzg2fQ.PmzWymzTxPvf3jm2QaG3qM8CVDNcGutY03VxE92Ejh0",
									"type": "string"
								}
							]
						},
						"method": "GET",
						"header": [],
						"body": {
							"mode": "raw",
							"raw": ""
						},
						"url": {
							"raw": "http://localhost:8080/api/bikes/5beff946906fdb4a8ce879e8",
							"protocol": "http",
							"host": [
								"localhost"
							],
							"port": "8080",
							"path": [
								"api",
								"bikes",
								"5beff946906fdb4a8ce879e8"
							]
						},
						"description": "Gets a specific bike"
					},
					"response": []
				},
				{
					"name": "/bikes/:id",
					"request": {
						"auth": {
							"type": "bearer",
							"bearer": [
								{
									"key": "token",
									"value": "eyJhbGciOiJIUzI1NiIsInR5cCI6IkpXVCJ9.eyJpZCI6IjViZWRhNDljMjRiY2JhMTUxNDY0MTM3ZCIsImlhdCI6MTU0MjQxMjk4NiwiZXhwIjoxNTQyNDk5Mzg2fQ.PmzWymzTxPvf3jm2QaG3qM8CVDNcGutY03VxE92Ejh0",
									"type": "string"
								}
							]
						},
						"method": "PUT",
						"header": [
							{
								"key": "Content-Type",
								"value": "application/json",
								"type": "text"
							}
						],
						"body": {
							"mode": "raw",
							"raw": "{\n    \"currLocation\": {\n    \t\"lat\": 44.156420,\n    \t\"long\": 12.300340\n    }\n}"
						},
						"url": {
							"raw": "http://localhost:8080/api/bikes/5bef5a83c858be3dc06c9fbd",
							"protocol": "http",
							"host": [
								"localhost"
							],
							"port": "8080",
							"path": [
								"api",
								"bikes",
								"5bef5a83c858be3dc06c9fbd"
							]
						},
						"description": "Updates a bike"
					},
					"response": []
				},
				{
					"name": "/bikes/:id/start-maintenance",
					"request": {
						"auth": {
							"type": "bearer",
							"bearer": [
								{
									"key": "token",
									"value": "eyJhbGciOiJIUzI1NiIsInR5cCI6IkpXVCJ9.eyJpZCI6IjViZWRhNDljMjRiY2JhMTUxNDY0MTM3ZCIsImlhdCI6MTU0MjQxMjk4NiwiZXhwIjoxNTQyNDk5Mzg2fQ.PmzWymzTxPvf3jm2QaG3qM8CVDNcGutY03VxE92Ejh0",
									"type": "string"
								}
							]
						},
						"method": "POST",
						"header": [
							{
								"key": "Content-Type",
								"name": "Content-Type",
								"value": "application/json",
								"type": "text"
							}
						],
						"body": {
							"mode": "raw",
							"raw": "{\n\t\"userId\": \"5beda49c24bcba151464137d\",\n\t\"notes\": \"The chain is broken, needs to be fixed.\"\n}"
						},
						"url": {
							"raw": "http://localhost:8080/api/bikes/5bef5a83c858be3dc06c9fbd/start-maintenance",
							"protocol": "http",
							"host": [
								"localhost"
							],
							"port": "8080",
							"path": [
								"api",
								"bikes",
								"5bef5a83c858be3dc06c9fbd",
								"start-maintenance"
							]
						}
					},
					"response": []
				},
				{
					"name": "/bikes/:id/end-maintenance",
					"request": {
						"auth": {
							"type": "bearer",
							"bearer": [
								{
									"key": "token",
									"value": "eyJhbGciOiJIUzI1NiIsInR5cCI6IkpXVCJ9.eyJpZCI6IjViZWRhNDljMjRiY2JhMTUxNDY0MTM3ZCIsImlhdCI6MTU0MjQxMjk4NiwiZXhwIjoxNTQyNDk5Mzg2fQ.PmzWymzTxPvf3jm2QaG3qM8CVDNcGutY03VxE92Ejh0",
									"type": "string"
								}
							]
						},
						"method": "POST",
						"header": [
							{
								"key": "Content-Type",
								"name": "Content-Type",
								"value": "application/json",
								"type": "text"
							}
						],
						"body": {
							"mode": "raw",
							"raw": "{\n\t\"userId\": \"5beda49c24bcba151464137d\",\n\t\"towerId\": \"5bef57d4a7abee4324f8a252\"\n}"
						},
						"url": {
							"raw": "http://localhost:8080/api/bikes/5bef5a83c858be3dc06c9fbd/end-maintenance",
							"protocol": "http",
							"host": [
								"localhost"
							],
							"port": "8080",
							"path": [
								"api",
								"bikes",
								"5bef5a83c858be3dc06c9fbd",
								"end-maintenance"
							]
						}
					},
					"response": []
				}
			]
		},
		{
			"name": "Stations",
			"item": [
				{
					"name": "/stations (?type=TYPE_ID)",
					"request": {
						"auth": {
							"type": "bearer",
							"bearer": [
								{
									"key": "token",
									"value": "eyJhbGciOiJIUzI1NiIsInR5cCI6IkpXVCJ9.eyJpZCI6IjViZTlkZTllYTA1YzViNTcyMDI0ZmUzOCIsImlhdCI6MTU0MjA1ODIzOSwiZXhwIjoxNTQyMTQ0NjM5fQ.sHSiNEv_Y3hkBH7fVI1Rqk6gdbmEq-c1RpgaN5tD4II",
									"type": "string"
								}
							]
						},
						"method": "GET",
						"header": [],
						"body": {
							"mode": "raw",
							"raw": ""
						},
						"url": {
							"raw": "http://localhost:8080/api/stations",
							"protocol": "http",
							"host": [
								"localhost"
							],
							"port": "8080",
							"path": [
								"api",
								"stations"
							]
						},
						"description": "Get all stations"
					},
					"response": []
				},
				{
					"name": "/stations",
					"request": {
						"auth": {
							"type": "bearer",
							"bearer": [
								{
									"key": "token",
									"value": "eyJhbGciOiJIUzI1NiIsInR5cCI6IkpXVCJ9.eyJpZCI6IjViZWY0N2Y3Yzg3ZDE4MzA0ODNkNGRkNyIsImlhdCI6MTU0MjQwODMwNSwiZXhwIjoxNTQyNDk0NzA1fQ.J9133xr90UKuSNNxMa_9pYI82WLLPe4wzueBhrfGoHM",
									"type": "string"
								}
							]
						},
						"method": "POST",
						"header": [
							{
								"key": "Content-Type",
								"value": "application/json",
								"type": "text"
							}
						],
						"body": {
							"mode": "raw",
							"raw": "{\r\n\t\"name\": \"Ospedale Cesena\",\r\n\t\"typeId\": \"5be9eb76e7179a27a535e811\",\r\n    \"location\": {\r\n        \"lat\": 44.138606,\r\n        \"long\": 12.244089\r\n    },\r\n    \"availableBikes\": 0,\r\n    \"totalBikes\": 5\r\n}"
						},
						"url": {
							"raw": "http://localhost:8080/api/stations",
							"protocol": "http",
							"host": [
								"localhost"
							],
							"port": "8080",
							"path": [
								"api",
								"stations"
							]
						},
						"description": "Creates a new station"
					},
					"response": []
				},
				{
					"name": "/stations/grouped",
					"request": {
						"auth": {
							"type": "bearer",
							"bearer": [
								{
									"key": "token",
									"value": "eyJhbGciOiJIUzI1NiIsInR5cCI6IkpXVCJ9.eyJpZCI6IjViZWRhNDljMjRiY2JhMTUxNDY0MTM3ZCIsImlhdCI6MTU0MjU0MDMyMywiZXhwIjoxNTQyNjI2NzIzfQ.UlS2W6_mVJkvC3ldKM-PFH6rJ2QICGCTtQbsNhU27Qw",
									"type": "string"
								}
							]
						},
						"method": "GET",
						"header": [],
						"body": {
							"mode": "raw",
							"raw": ""
						},
						"url": {
							"raw": "http://localhost:8080/api/stations/grouped",
							"protocol": "http",
							"host": [
								"localhost"
							],
							"port": "8080",
							"path": [
								"api",
								"stations",
								"grouped"
							]
						}
					},
					"response": []
				},
				{
					"name": "/stations/:id",
					"request": {
						"auth": {
							"type": "bearer",
							"bearer": [
								{
									"key": "token",
									"value": "eyJhbGciOiJIUzI1NiIsInR5cCI6IkpXVCJ9.eyJpZCI6IjViZTlkZTllYTA1YzViNTcyMDI0ZmUzOCIsImlhdCI6MTU0MjA1ODIzOSwiZXhwIjoxNTQyMTQ0NjM5fQ.sHSiNEv_Y3hkBH7fVI1Rqk6gdbmEq-c1RpgaN5tD4II",
									"type": "string"
								}
							]
						},
						"method": "GET",
						"header": [],
						"body": {
							"mode": "raw",
							"raw": ""
						},
						"url": {
							"raw": "http://localhost:8080/api/stations/5bdd7d1f87fe6a33f46537dc",
							"protocol": "http",
							"host": [
								"localhost"
							],
							"port": "8080",
							"path": [
								"api",
								"stations",
								"5bdd7d1f87fe6a33f46537dc"
							]
						}
					},
					"response": []
				},
				{
					"name": "/stations/:id",
					"request": {
						"auth": {
							"type": "bearer",
							"bearer": [
								{
									"key": "token",
									"value": "eyJhbGciOiJIUzI1NiIsInR5cCI6IkpXVCJ9.eyJpZCI6IjViZWY0N2Y3Yzg3ZDE4MzA0ODNkNGRkNyIsImlhdCI6MTU0MjQwODMwNSwiZXhwIjoxNTQyNDk0NzA1fQ.J9133xr90UKuSNNxMa_9pYI82WLLPe4wzueBhrfGoHM",
									"type": "string"
								}
							]
						},
						"method": "PUT",
						"header": [
							{
								"key": "Content-Type",
								"name": "Content-Type",
								"value": "application/json",
								"type": "text"
							}
						],
						"body": {
							"mode": "raw",
							"raw": "{\n\t\"name\": \"Ospedale Bufalini Cesena\"\n}"
						},
						"url": {
							"raw": "http://localhost:8080/api/stations/5bef5831a7abee4324f8a261",
							"protocol": "http",
							"host": [
								"localhost"
							],
							"port": "8080",
							"path": [
								"api",
								"stations",
								"5bef5831a7abee4324f8a261"
							]
						}
					},
					"response": []
				}
			]
		},
		{
			"name": "Towers",
			"item": [
				{
					"name": "/towers (?free)",
					"request": {
						"auth": {
							"type": "bearer",
							"bearer": [
								{
									"key": "token",
									"value": "eyJhbGciOiJIUzI1NiIsInR5cCI6IkpXVCJ9.eyJpZCI6IjViZWRhNDljMjRiY2JhMTUxNDY0MTM3ZCIsImlhdCI6MTU0MjQxMjk4NiwiZXhwIjoxNTQyNDk5Mzg2fQ.PmzWymzTxPvf3jm2QaG3qM8CVDNcGutY03VxE92Ejh0",
									"type": "string"
								}
							]
						},
						"method": "GET",
						"header": [],
						"body": {
							"mode": "raw",
							"raw": ""
						},
						"url": {
							"raw": "http://localhost:8080/api/towers",
							"protocol": "http",
							"host": [
								"localhost"
							],
							"port": "8080",
							"path": [
								"api",
								"towers"
							]
						}
					},
					"response": []
				},
				{
					"name": "/towers/:id",
					"request": {
						"auth": {
							"type": "bearer",
							"bearer": [
								{
									"key": "token",
									"value": "eyJhbGciOiJIUzI1NiIsInR5cCI6IkpXVCJ9.eyJpZCI6IjViZWRhNDljMjRiY2JhMTUxNDY0MTM3ZCIsImlhdCI6MTU0MjQxMjk4NiwiZXhwIjoxNTQyNDk5Mzg2fQ.PmzWymzTxPvf3jm2QaG3qM8CVDNcGutY03VxE92Ejh0",
									"type": "string"
								}
							]
						},
						"method": "GET",
						"header": [],
						"body": {
							"mode": "raw",
							"raw": ""
						},
						"url": {
							"raw": "http://localhost:8080/api/towers/5bef57d4a7abee4324f8a253",
							"protocol": "http",
							"host": [
								"localhost"
							],
							"port": "8080",
							"path": [
								"api",
								"towers",
								"5bef57d4a7abee4324f8a253"
							]
						}
					},
					"response": []
				},
				{
					"name": "/towers/:id",
					"request": {
						"auth": {
							"type": "bearer",
							"bearer": [
								{
									"key": "token",
									"value": "eyJhbGciOiJIUzI1NiIsInR5cCI6IkpXVCJ9.eyJpZCI6IjViZWRhNDljMjRiY2JhMTUxNDY0MTM3ZCIsImlhdCI6MTU0MjQxMjk4NiwiZXhwIjoxNTQyNDk5Mzg2fQ.PmzWymzTxPvf3jm2QaG3qM8CVDNcGutY03VxE92Ejh0",
									"type": "string"
								}
							]
						},
						"method": "PUT",
						"header": [
							{
								"key": "Content-Type",
								"name": "Content-Type",
								"value": "application/json",
								"type": "text"
							}
						],
						"body": {
							"mode": "raw",
							"raw": "{\n\t\"name\": \"Tower #3\"\n}"
						},
						"url": {
							"raw": "http://localhost:8080/api/towers/5bef57d4a7abee4324f8a253",
							"protocol": "http",
							"host": [
								"localhost"
							],
							"port": "8080",
							"path": [
								"api",
								"towers",
								"5bef57d4a7abee4324f8a253"
							]
						}
					},
					"response": []
				},
				{
					"name": "/towers/:id/rent-bike",
					"request": {
						"auth": {
							"type": "bearer",
							"bearer": [
								{
									"key": "token",
									"value": "eyJhbGciOiJIUzI1NiIsInR5cCI6IkpXVCJ9.eyJpZCI6IjViZWRhNDljMjRiY2JhMTUxNDY0MTM3ZCIsImlhdCI6MTU0MjQxMjk4NiwiZXhwIjoxNTQyNDk5Mzg2fQ.PmzWymzTxPvf3jm2QaG3qM8CVDNcGutY03VxE92Ejh0",
									"type": "string"
								}
							]
						},
						"method": "POST",
						"header": [
							{
								"key": "Content-Type",
								"name": "Content-Type",
								"value": "application/json",
								"type": "text"
							}
						],
						"body": {
							"mode": "raw",
							"raw": "{\n    \"userId\": \"5be9ddc2a05c5b572024fe30\"\n}"
						},
						"url": {
							"raw": "http://localhost:8080/api/towers/5bef57f4a7abee4324f8a25c/rent-bike",
							"protocol": "http",
							"host": [
								"localhost"
							],
							"port": "8080",
							"path": [
								"api",
								"towers",
								"5bef57f4a7abee4324f8a25c",
								"rent-bike"
							]
						}
					},
					"response": []
				},
				{
					"name": "/tower/:id/return-bike",
					"request": {
						"auth": {
							"type": "bearer",
							"bearer": [
								{
									"key": "token",
									"value": "eyJhbGciOiJIUzI1NiIsInR5cCI6IkpXVCJ9.eyJpZCI6IjViZWRhNDljMjRiY2JhMTUxNDY0MTM3ZCIsImlhdCI6MTU0MjQxMjk4NiwiZXhwIjoxNTQyNDk5Mzg2fQ.PmzWymzTxPvf3jm2QaG3qM8CVDNcGutY03VxE92Ejh0",
									"type": "string"
								}
							]
						},
						"method": "POST",
						"header": [
							{
								"key": "Content-Type",
								"name": "Content-Type",
								"value": "application/json",
								"type": "text"
							}
						],
						"body": {
							"mode": "raw",
							"raw": "{\n\t\"userId\": \"5be9ddc2a05c5b572024fe30\",\n\t\"bikeId\": \"5bf013fc55afb349d43549c9\"\n}"
						},
						"url": {
							"raw": "http://localhost:8080/api/towers/5bef57f4a7abee4324f8a25c/return-bike",
							"protocol": "http",
							"host": [
								"localhost"
							],
							"port": "8080",
							"path": [
								"api",
								"towers",
								"5bef57f4a7abee4324f8a25c",
								"return-bike"
							]
						}
					},
					"response": []
				}
			],
			"event": [
				{
					"listen": "prerequest",
					"script": {
						"id": "c08246fb-9305-45f9-b18d-d245938018a8",
						"type": "text/javascript",
						"exec": [
							""
						]
					}
				},
				{
					"listen": "test",
					"script": {
						"id": "7422bead-c2ea-4e7b-a02c-45549d6f8c5d",
						"type": "text/javascript",
						"exec": [
							""
						]
					}
				}
			]
		},
		{
			"name": "Stats",
			"item": [
				{
					"name": "/stats/total-rent-count",
					"request": {
						"auth": {
							"type": "bearer",
							"bearer": [
								{
									"key": "token",
									"value": "eyJhbGciOiJIUzI1NiIsInR5cCI6IkpXVCJ9.eyJpZCI6IjViZWRhNDljMjRiY2JhMTUxNDY0MTM3ZCIsImlhdCI6MTU0MjY1NTM2MywiZXhwIjoxNTQyNzQxNzYzfQ.b1w5T61o605IgzspQzl3FY1ypkV4PTV3QTBLNOp5Uuw",
									"type": "string"
								}
							]
						},
						"method": "GET",
						"header": [],
						"body": {
							"mode": "raw",
							"raw": ""
						},
						"url": {
							"raw": "http://localhost:8080/api/stats/total-rent-count",
							"protocol": "http",
							"host": [
								"localhost"
							],
							"port": "8080",
							"path": [
								"api",
								"stats",
								"total-rent-count"
							]
						}
					},
					"response": []
				},
				{
					"name": "/stats/total-rent-count-by-type",
					"request": {
						"auth": {
							"type": "bearer",
							"bearer": [
								{
									"key": "token",
									"value": "eyJhbGciOiJIUzI1NiIsInR5cCI6IkpXVCJ9.eyJpZCI6IjViZWRhNDljMjRiY2JhMTUxNDY0MTM3ZCIsImlhdCI6MTU0MjY1NTM2MywiZXhwIjoxNTQyNzQxNzYzfQ.b1w5T61o605IgzspQzl3FY1ypkV4PTV3QTBLNOp5Uuw",
									"type": "string"
								}
							]
						},
						"method": "GET",
						"header": [],
						"body": {
							"mode": "raw",
							"raw": ""
						},
						"url": {
							"raw": "http://localhost:8080/api/stats/total-rent-count-by-type",
							"protocol": "http",
							"host": [
								"localhost"
							],
							"port": "8080",
							"path": [
								"api",
								"stats",
								"total-rent-count-by-type"
							]
						}
					},
					"response": []
				},
				{
					"name": "/stats/average-rent-time-by-type",
					"request": {
						"auth": {
							"type": "bearer",
							"bearer": [
								{
									"key": "token",
									"value": "eyJhbGciOiJIUzI1NiIsInR5cCI6IkpXVCJ9.eyJpZCI6IjViZWRhNDljMjRiY2JhMTUxNDY0MTM3ZCIsImlhdCI6MTU0MjY1NTM2MywiZXhwIjoxNTQyNzQxNzYzfQ.b1w5T61o605IgzspQzl3FY1ypkV4PTV3QTBLNOp5Uuw",
									"type": "string"
								}
							]
						},
						"method": "GET",
						"header": [],
						"body": {
							"mode": "raw",
							"raw": ""
						},
						"url": {
							"raw": "http://localhost:8080/api/stats/average-rent-time-by-type",
							"protocol": "http",
							"host": [
								"localhost"
							],
							"port": "8080",
							"path": [
								"api",
								"stats",
								"average-rent-time-by-type"
							]
						}
					},
					"response": []
				},
				{
					"name": "/stats/stations-usages-count",
					"request": {
						"auth": {
							"type": "bearer",
							"bearer": [
								{
									"key": "token",
									"value": "eyJhbGciOiJIUzI1NiIsInR5cCI6IkpXVCJ9.eyJpZCI6IjViZWRhNDljMjRiY2JhMTUxNDY0MTM3ZCIsImlhdCI6MTU0MjgzMzM2MCwiZXhwIjoxNTQyOTE5NzYwfQ.8jDjaaC3TI0yJYsv6g08HUXOVPmniXIZhU7H8s5TXi0",
									"type": "string"
								}
							]
						},
						"method": "GET",
						"header": [],
						"body": {
							"mode": "raw",
							"raw": ""
						},
						"url": {
							"raw": "http://localhost:8080/api/stats/stations-usages-count",
							"protocol": "http",
							"host": [
								"localhost"
							],
							"port": "8080",
							"path": [
								"api",
								"stats",
								"stations-usages-count"
							]
						}
					},
					"response": []
				},
				{
					"name": "/stats/monthly-rent-count-by-type",
					"request": {
						"auth": {
							"type": "bearer",
							"bearer": [
								{
									"key": "token",
									"value": "eyJhbGciOiJIUzI1NiIsInR5cCI6IkpXVCJ9.eyJpZCI6IjViZWRhNDljMjRiY2JhMTUxNDY0MTM3ZCIsImlhdCI6MTU0Mjc4OTk5MiwiZXhwIjoxNTQyODc2MzkyfQ.7DfngNEsCxBytm4md83a-aqz6kY0qSRHpzaK2ZlOIAM",
									"type": "string"
								}
							]
						},
						"method": "GET",
						"header": [],
						"body": {
							"mode": "raw",
							"raw": ""
						},
						"url": {
							"raw": "http://localhost:8080/api/stats/monthly-rent-count-by-type",
							"protocol": "http",
							"host": [
								"localhost"
							],
							"port": "8080",
							"path": [
								"api",
								"stats",
								"monthly-rent-count-by-type"
							]
						}
					},
					"response": []
				}
			]
		}
	]
}